arriva_nl,NaeTh1aeChieK3aiSifaithahrusoh8S,10001
arriva_nl,NaeTh1aeChieK3aiSifaithahrusoh8S,10002
arriva_nl,NaeTh1aeChieK3aiSifaithahrusoh8S,10003
arriva_nl,NaeTh1aeChieK3aiSifaithahrusoh8S,10004
arriva_nl,NaeTh1aeChieK3aiSifaithahrusoh8S,10005
arriva_nl,NaeTh1aeChieK3aiSifaithahrusoh8S,10006
arriva_nl,NaeTh1aeChieK3aiSifaithahrusoh8S,10007
arriva_nl,NaeTh1aeChieK3aiSifaithahrusoh8S,10008
arriva_nl,NaeTh1aeChieK3aiSifaithahrusoh8S,10009
arriva_nl,NaeTh1aeChieK3aiSifaithahrusoh8S,10010
arriva_nl,NaeTh1aeChieK3aiSifaithahrusoh8S,10011
arriva_nl,NaeTh1aeChieK3aiSifaithahrusoh8S,10012
arriva_nl,NaeTh1aeChieK3aiSifaithahrusoh8S,10013
arriva_nl,NaeTh1aeChieK3aiSifaithahrusoh8S,10014
arriva_nl,NaeTh1aeChieK3aiSifaithahrusoh8S,10015
arriva_nl,NaeTh1aeChieK3aiSifaithahrusoh8S,10016
arriva_nl,NaeTh1aeChieK3aiSifaithahrusoh8S,10017
arriva_nl,NaeTh1aeChieK3aiSifaithahrusoh8S,10018
arriva_nl,NaeTh1aeChieK3aiSifaithahrusoh8S,10019
arriva_nl,NaeTh1aeChieK3aiSifaithahrusoh8S,10020
arriva_nl,NaeTh1aeChieK3aiSifaithahrusoh8S,10021
arriva_nl,NaeTh1aeChieK3aiSifaithahrusoh8S,10022
arriva_nl,NaeTh1aeChieK3aiSifaithahrusoh8S,10023
arriva_nl,NaeTh1aeChieK3aiSifaithahrusoh8S,10024
arriva_nl,NaeTh1aeChieK3aiSifaithahrusoh8S,10025
arriva_nl,NaeTh1aeChieK3aiSifaithahrusoh8S,10026
arriva_nl,NaeTh1aeChieK3aiSifaithahrusoh8S,10027
arriva_nl,NaeTh1aeChieK3aiSifaithahrusoh8S,10028
arriva_nl,NaeTh1aeChieK3aiSifaithahrusoh8S,10029
arriva_nl,NaeTh1aeChieK3aiSifaithahrusoh8S,10030
arriva_nl,NaeTh1aeChieK3aiSifaithahrusoh8S,10031
arriva_nl,NaeTh1aeChieK3aiSifaithahrusoh8S,10032
arriva_nl,NaeTh1aeChieK3aiSifaithahrusoh8S,10033
arriva_nl,NaeTh1aeChieK3aiSifaithahrusoh8S,10034
arriva_nl,NaeTh1aeChieK3aiSifaithahrusoh8S,10035
arriva_nl,NaeTh1aeChieK3aiSifaithahrusoh8S,10036
arriva_nl,NaeTh1aeChieK3aiSifaithahrusoh8S,10037
arriva_nl,NaeTh1aeChieK3aiSifaithahrusoh8S,10038
arriva_nl,NaeTh1aeChieK3aiSifaithahrusoh8S,10039
arriva_nl,NaeTh1aeChieK3aiSifaithahrusoh8S,10040
arriva_nl,NaeTh1aeChieK3aiSifaithahrusoh8S,10041
arriva_nl,NaeTh1aeChieK3aiSifaithahrusoh8S,10042
arriva_nl,NaeTh1aeChieK3aiSifaithahrusoh8S,10043
arriva_nl,NaeTh1aeChieK3aiSifaithahrusoh8S,10044
arriva_nl,NaeTh1aeChieK3aiSifaithahrusoh8S,10045
arriva_nl,NaeTh1aeChieK3aiSifaithahrusoh8S,10046
arriva_nl,NaeTh1aeChieK3aiSifaithahrusoh8S,10047
arriva_nl,NaeTh1aeChieK3aiSifaithahrusoh8S,10048
arriva_nl,NaeTh1aeChieK3aiSifaithahrusoh8S,10049
arriva_nl,NaeTh1aeChieK3aiSifaithahrusoh8S,10050
arriva_nl,NaeTh1aeChieK3aiSifaithahrusoh8S,10051
arriva_nl,NaeTh1aeChieK3aiSifaithahrusoh8S,10052
arriva_nl,NaeTh1aeChieK3aiSifaithahrusoh8S,10053
arriva_nl,NaeTh1aeChieK3aiSifaithahrusoh8S,10054
arriva_nl,NaeTh1aeChieK3aiSifaithahrusoh8S,10055
arriva_nl,NaeTh1aeChieK3aiSifaithahrusoh8S,10056
arriva_nl,NaeTh1aeChieK3aiSifaithahrusoh8S,10057
arriva_nl,NaeTh1aeChieK3aiSifaithahrusoh8S,10058
arriva_nl,NaeTh1aeChieK3aiSifaithahrusoh8S,10059
arriva_nl,NaeTh1aeChieK3aiSifaithahrusoh8S,10060
arriva_nl,NaeTh1aeChieK3aiSifaithahrusoh8S,10061
arriva_nl,NaeTh1aeChieK3aiSifaithahrusoh8S,10062
arriva_nl,NaeTh1aeChieK3aiSifaithahrusoh8S,10063
arriva_nl,NaeTh1aeChieK3aiSifaithahrusoh8S,10064
arriva_nl,NaeTh1aeChieK3aiSifaithahrusoh8S,10065
arriva_nl,NaeTh1aeChieK3aiSifaithahrusoh8S,10066
arriva_nl,NaeTh1aeChieK3aiSifaithahrusoh8S,10067
arriva_nl,NaeTh1aeChieK3aiSifaithahrusoh8S,10068
arriva_nl,NaeTh1aeChieK3aiSifaithahrusoh8S,10069
arriva_nl,NaeTh1aeChieK3aiSifaithahrusoh8S,10070
arriva_nl,NaeTh1aeChieK3aiSifaithahrusoh8S,10071
arriva_nl,NaeTh1aeChieK3aiSifaithahrusoh8S,10072
arriva_nl,NaeTh1aeChieK3aiSifaithahrusoh8S,10073
arriva_nl,NaeTh1aeChieK3aiSifaithahrusoh8S,10074
arriva_nl,NaeTh1aeChieK3aiSifaithahrusoh8S,10075
arriva_nl,NaeTh1aeChieK3aiSifaithahrusoh8S,10076
arriva_nl,NaeTh1aeChieK3aiSifaithahrusoh8S,10077
arriva_nl,NaeTh1aeChieK3aiSifaithahrusoh8S,10078
arriva_nl,NaeTh1aeChieK3aiSifaithahrusoh8S,10079
arriva_nl,NaeTh1aeChieK3aiSifaithahrusoh8S,10080
arriva_nl,NaeTh1aeChieK3aiSifaithahrusoh8S,10081
arriva_nl,NaeTh1aeChieK3aiSifaithahrusoh8S,10082
arriva_nl,NaeTh1aeChieK3aiSifaithahrusoh8S,10083
arriva_nl,NaeTh1aeChieK3aiSifaithahrusoh8S,10084
arriva_nl,NaeTh1aeChieK3aiSifaithahrusoh8S,10085
arriva_nl,NaeTh1aeChieK3aiSifaithahrusoh8S,10086
arriva_nl,NaeTh1aeChieK3aiSifaithahrusoh8S,10087
arriva_nl,NaeTh1aeChieK3aiSifaithahrusoh8S,10088
arriva_nl,NaeTh1aeChieK3aiSifaithahrusoh8S,10089
arriva_nl,NaeTh1aeChieK3aiSifaithahrusoh8S,10090
arriva_nl,NaeTh1aeChieK3aiSifaithahrusoh8S,10091
arriva_nl,NaeTh1aeChieK3aiSifaithahrusoh8S,10092
arriva_nl,NaeTh1aeChieK3aiSifaithahrusoh8S,10093
arriva_nl,NaeTh1aeChieK3aiSifaithahrusoh8S,10094
arriva_nl,NaeTh1aeChieK3aiSifaithahrusoh8S,10095
arriva_nl,NaeTh1aeChieK3aiSifaithahrusoh8S,10096
arriva_nl,NaeTh1aeChieK3aiSifaithahrusoh8S,10097
arriva_nl,NaeTh1aeChieK3aiSifaithahrusoh8S,10098
arriva_nl,NaeTh1aeChieK3aiSifaithahrusoh8S,10099
arriva_nl,NaeTh1aeChieK3aiSifaithahrusoh8S,10100
